{
    "walls": [{
        "name": "Adib Saikali",
        "comment": "Messages received",
        "timestamp": "2014-05-24T17:45:23.331Z"
    }, {
        "name": "John Doe",
        "comment": "Bla bla bla",
        "timestamp": "2014-05-24T17:30:20.331Z"
    }, {
        "name": "Tardis",
        "comment": "Testing messages",
        "timestamp": "2014-05-24T17:35:23.331Z"
    }, {
        "name": "Tardis",
        "comment": "Hello World!",
        "timestamp": "2014-05-24T17:25:21.695Z"
    }],
    "status": 1
}